1
20220222.B-o27508_1_8-CCS_3_U2OS_HMAF_R2_R1.fastq.gz sense
20220222.B-o27508_1_8-CCS_3_U2OS_HMAF_R2_R1.fastq.gz antisense
2
20220222.B-o27508_1_8-CCS_3_U2OS_HMAF_R2_R1.fastq.gz sense
20220222.B-o27508_1_8-CCS_3_U2OS_HMAF_R2_R1.fastq.gz antisense
3
20220222.B-o27508_1_8-CCS_3_U2OS_HMAF_R2_R1.fastq.gz sense
20220222.B-o27508_1_8-CCS_3_U2OS_HMAF_R2_R1.fastq.gz antisense
4
20220222.B-o27508_1_8-CCS_3_U2OS_HMAF_R2_R1.fastq.gz sense
20220222.B-o27508_1_8-CCS_3_U2OS_HMAF_R2_R1.fastq.gz antisense
